ALA4R • ALA4R
…
## where a species was not present, it will have NA: convert these to 0
sppcols <- setdiff(names(xgridded),
                   c("longitude", "latitude", "precipitationAnnual", "temperatureAnnualMaxMean",
                     "richness"))
xgridded <- xgridded %>% mutate_at(sppcols, function(z) ifelse(is.na(z), 0, z))

The end result:

xgridded

## # A tibble: 175 x 847
##    longitude latitude precipitationAnn… temperatureAnnual… richness `Acacia acinacea` `Acacia brachybo… `Acacia calamif…
##        <dbl>    <dbl>             <dbl>              <dbl>    <int>             <dbl>             <dbl>            <dbl>
##  1      140     -35                303.               22.5       24                 1                 1                1
##  2      140     -34.5              276.               23.0       32                 0                 1                1
##  3      140     -34                247.               23.5       44                 0                 1                0
##  4      140     -33.5              226.               23.9       24                 0                 0                1
##  5      140     -33                213                24.0       14                 0                 0                0
##  6      140     -32.5              221.               23.3       18                 0                 0                0
##  7      140     -32                193.               24.1       19                 0                 0                0
##  8      140.    -35                294.               22.6       33                 0                 1                1
##  9      140.    -34.5              256.               23.4       69                 1                 1                0
## 10      140.    -34                248.               23.7       71                 1                 1                1
## # … with 165 more rows, and 839 more variables: Acacia euthycarpa <dbl>, Acacia hakeoides <dbl>, Acacia halliana <dbl>,
## #   Acacia ligulata <dbl>, Acacia lineata <dbl>, Acacia microcarpa <dbl>, Acacia notabilis <dbl>,
## #   Acacia pycnantha <dbl>, Acacia rigens <dbl>, Acacia sclerophylla var. sclerophylla <dbl>, Acacia spinescens <dbl>,
## #   Acacia wilhelmiana <dbl>, Aotus subspinescens <dbl>, Dillwynia hispida <dbl>, Dillwynia uncinata <dbl>,
## #   Eutaxia microphylla <dbl>, Medicago minima <dbl>, Phyllota pleurandroides <dbl>, Pultenaea densifolia <dbl>,
## #   Pultenaea tenuifolia <dbl>, Senna artemisioides subsp. filifolia <dbl>, Acacia acanthoclada <dbl>,
## #   Acacia acanthoclada subsp. acanthoclada <dbl>, Acacia ancistrophylla var. lissophylla <dbl>,
## #   Acacia colletioides <dbl>, Acacia myrtifolia <dbl>, Acacia nyssophylla <dbl>, Acacia oswaldii <dbl>,
## #   Acacia tetragonophylla <dbl>, Daviesia arenaria <dbl>, Eutaxia diffusa <dbl>, Glycyrrhiza acanthocarpa <dbl>,
…
